{
    "num_particles": 1000,
    "sample_shape" : [40, 40],
    "relative_dist_std_dev" : 0.5,
    "relative_angle_std_dev" : 0.2,
    "abs_dist_std_dev" : 0.5,
    "abs_angle_std_dev" : 0.3,
    "use_delinear" : true,
    "no_motion_no_update" : false
}